<svg width="28.265000000000008" height="28.265000000000008" xmlns="http://www.w3.org/2000/svg">
 <g>
  <title>background</title>
  <rect fill="none" id="canvas_background" height="30.265" width="30.265" y="-1" x="-1"/>
 </g>

 <g>
  <title>Layer 1</title>
  <g stroke="null" id="svg_1">
   <path stroke="null" id="svg_2" fill="#ffffff" d="m14.13199,28.11348c7.2265,0 13.10513,-5.75 13.10513,-12.809c0,-7.06 -5.87863,-12.807 -13.10513,-12.807c-0.47999,0 -0.9651,0.027 -1.44714,0.08l0,-2.07c0,-0.266 -0.16784,-0.508 -0.41552,-0.611c-0.25791,-0.098 -0.54345,-0.043 -0.73995,0.148l-4.64334,4.547c-0.26405,0.258 -0.26405,0.67 0,0.932l4.64129,4.557c0.19752,0.188 0.48409,0.246 0.74199,0.143c0.24767,-0.104 0.41552,-0.344 0.41552,-0.609l0,-2.296c0.47999,-0.086 0.96306,-0.125 1.44714,-0.125c4.57784,0 8.30315,3.639 8.30315,8.111c0,4.471 -3.72634,8.113 -8.30315,8.113s-8.30111,-3.643 -8.30111,-8.113c0,-0.363 -0.30191,-0.66 -0.67752,-0.66l-3.44796,0c-0.37355,0 -0.67752,0.297 -0.67752,0.66c0,7.059 5.88272,12.809 13.1041,12.809l0.00002,0z"/>
   <g stroke="null" id="svg_3"/>
   <g stroke="null" id="svg_4"/>
   <g stroke="null" id="svg_5"/>
   <g stroke="null" id="svg_6"/>
   <g stroke="null" id="svg_7"/>
   <g stroke="null" id="svg_8"/>
   <g stroke="null" id="svg_9"/>
   <g stroke="null" id="svg_10"/>
   <g stroke="null" id="svg_11"/>
   <g stroke="null" id="svg_12"/>
   <g stroke="null" id="svg_13"/>
   <g stroke="null" id="svg_14"/>
   <g stroke="null" id="svg_15"/>
   <g stroke="null" id="svg_16"/>
   <g stroke="null" id="svg_17"/>
  </g>
  <g id="svg_18"/>
  <g id="svg_19"/>
  <g id="svg_20"/>
  <g id="svg_21"/>
  <g id="svg_22"/>
  <g id="svg_23"/>
  <g id="svg_24"/>
  <g id="svg_25"/>
  <g id="svg_26"/>
  <g id="svg_27"/>
  <g id="svg_28"/>
  <g id="svg_29"/>
  <g id="svg_30"/>
  <g id="svg_31"/>
  <g id="svg_32"/>
 </g>
</svg>